<?xml version="1.0" encoding="UTF-8" standalone="no"?>
<!-- Created with Inkscape (http://www.inkscape.org/) -->

<svg
   xmlns:dc="http://purl.org/dc/elements/1.1/"
   xmlns:cc="http://creativecommons.org/ns#"
   xmlns:rdf="http://www.w3.org/1999/02/22-rdf-syntax-ns#"
   xmlns:svg="http://www.w3.org/2000/svg"
   xmlns="http://www.w3.org/2000/svg"
   xmlns:sodipodi="http://sodipodi.sourceforge.net/DTD/sodipodi-0.dtd"
   xmlns:inkscape="http://www.inkscape.org/namespaces/inkscape"
   version="1.1"
   id="svg22"
   width="891.45074"
   height="175.18594"
   viewBox="0 0 891.45074 175.18594"
   sodipodi:docname="CEMR_LOGO_VECT_EN.svg"
   inkscape:version="0.92.0 r15299">
  <metadata
     id="metadata28">
    <rdf:RDF>
      <cc:Work
         rdf:about="">
        <dc:format>image/svg+xml</dc:format>
        <dc:type
           rdf:resource="http://purl.org/dc/dcmitype/StillImage" />
        <dc:title></dc:title>
      </cc:Work>
    </rdf:RDF>
  </metadata>
  <defs
     id="defs26" />
  <sodipodi:namedview
     pagecolor="#ffffff"
     bordercolor="#666666"
     borderopacity="1"
     objecttolerance="10"
     gridtolerance="10"
     guidetolerance="10"
     inkscape:pageopacity="0"
     inkscape:pageshadow="2"
     inkscape:window-width="1920"
     inkscape:window-height="1018"
     id="namedview24"
     showgrid="false"
     fit-margin-top="0"
     fit-margin-left="0"
     fit-margin-right="0"
     fit-margin-bottom="0"
     inkscape:zoom="1"
     inkscape:cx="263.21292"
     inkscape:cy="-21.497761"
     inkscape:window-x="-8"
     inkscape:window-y="-8"
     inkscape:window-maximized="1"
     inkscape:current-layer="svg22" />
  <path
     inkscape:connector-curvature="0"
     id="path3704-2"
     d="m 340.70914,151.1447 c -1.07966,-2.81354 0.13931,-4.93732 3.30458,-5.75753 1.75205,-0.454 4.11386,-2.00562 5.24847,-3.44803 2.02291,-2.57171 2.06291,-3.61597 2.06291,-53.852851 0,-49.819507 -0.0554,-51.300727 -2.01219,-53.788357 -1.1067,-1.40695 -3.35712,-2.85348 -5.00094,-3.21452 -3.14693,-0.69119 -4.78793,-3.96722 -3.57305,-7.13314 0.57422,-1.4964 4.11888,-1.58864 40.35785,-1.05019 42.89715,0.63736 48.36647,1.2244 58.48327,6.27711 6.76462,3.3785 11.26407,7.66963 14.58435,13.9091 2.3794,4.47136 2.65732,6.05729 2.62869,15 -0.0284,8.88228 -0.33011,10.55886 -2.69893,15 -3.42474,6.4208 -9.45412,12.788517 -14.58986,15.408577 -2.22392,1.13456 -4.34207,2.54595 -4.707,3.13642 -0.36494,0.59048 1.74203,3.64148 4.68215,6.78002 2.94011,3.138531 7.59566,9.889401 10.34566,15.001931 10.84999,20.17122 15.07647,26.59941 19.83731,30.17119 4.82489,3.61984 6.1457,7.2188 3.0809,8.39487 -0.86998,0.33385 -11.37524,0.60699 -23.34501,0.60699 -19.47804,0 -21.92369,-0.18375 -23.29142,-1.75 -0.84051,-0.9625 -6.77746,-12.17368 -13.19322,-24.91374 -6.41576,-12.74006 -12.58047,-24.32756 -13.69937,-25.75 -1.51155,-1.921621 -2.95479,-2.586261 -5.61599,-2.586261 h -3.58163 l 0.58314,20.567051 c 0.64027,22.58212 1.16841,24.64156 6.87127,26.79415 2.90467,1.09639 4.6657,4.51645 3.38915,6.58196 -0.43496,0.70377 -10.49931,1.05684 -30.12553,1.05684 -24.74441,0 -29.56111,-0.23126 -30.02556,-1.44159 z M 377.3251,87.586289 V 32.586292 h -6.5 -6.5 v 54.999997 55.000001 h 6.5 6.5 z m 74,54.404371 c 0,-0.3276 -0.83847,-1.7901 -1.86326,-3.25 -1.02479,-1.4599 -4.93475,-8.50437 -8.6888,-15.65437 -9.0445,-17.22625 -13.22708,-22.79389 -19.99121,-26.611331 -3.0012,-1.69377 -5.45673,-3.71163 -5.45673,-4.48413 0,-1.81574 -1.38269,-1.77512 -5.1054,0.14996 l -3.00608,1.55451 2.89731,3.29985 c 1.59352,1.81491 7.52663,12.252891 13.18468,23.195491 5.65806,10.94261 10.73445,20.45815 11.28088,21.14565 1.00349,1.26257 16.74861,1.87773 16.74861,0.65437 z M 424.95298,85.976869 c 6.30516,-2.6207 13.02756,-8.126917 15.89446,-13.018907 2.06228,-3.51902 2.80346,-6.36582 3.21299,-12.34074 0.46765,-6.82288 0.23005,-8.4268 -1.95558,-13.20085 -1.93765,-4.23238 -3.61803,-6.15951 -7.59749,-8.71313 -4.21034,-2.70176 -13.24264,-6.05519 -16.44377,-6.10508 -0.41883,-0.007 1.21743,2.41772 3.63612,5.38723 6.16752,7.57204 7.95585,13.56813 7.44265,24.95442 -0.45175,10.02292 -3.63894,19.010297 -8.04461,22.684577 -2.80457,2.33898 -1.26317,2.47991 3.85523,0.35248 z m -17.6015,-2.40404 c 2.56685,-1.30951 4.73806,-3.494637 6.21016,-6.249997 2.00536,-3.75345 2.26346,-5.66498 2.26346,-16.76358 0,-19.92428 -3.45304,-24.95365 -17.69875,-25.77832 l -7.80125,-0.45161 v 25.62849 25.628477 h 6.53984 c 4.58097,0 7.72199,-0.60309 10.48654,-2.01346 z"
     style="fill:#cfd1d0"
     sodipodi:nodetypes="sccscccssscsscssscscscscsscsscccccccccssssscccscsscsscccsssscsscccss" />
  <g
     id="g3841"
     transform="translate(-54.450144,-18.031181)">
    <path
       inkscape:connector-curvature="0"
       id="path3757"
       d="m 889.05322,191.64717 c 0.26635,-1.38307 1.86225,-2.13697 6.35169,-3.00054 7.6193,-1.46561 10.32741,-2.59274 14.33825,-5.96764 8.29124,-6.97661 11.01913,-21.39645 7.65771,-40.47925 -3.06305,-17.38896 -1.77893,-24.53523 5.40369,-30.07224 8.49202,-6.54642 8.7747,-6.89302 6.70182,-8.21738 -5.86642,-3.74804 -10.11695,-7.615679 -11.75352,-10.694779 -2.30429,-4.33537 -2.42934,-13.22246 -0.35199,-25.0156 4.76224,-27.03533 -2.47778,-41.94881 -21.98719,-45.29063 -5.18685,-0.88847 -6.51281,-1.48143 -6.51281,-2.91248 0,-4.0248 18.34631,-1.45457 28.3044,3.9653 5.87927,3.1999 10.89549,9.40568 13.38248,16.55604 2.28558,6.57126 2.25362,23.03913 -0.065,33.49715 -3.83326,17.28974 -0.81899,24.90028 11.1373,28.119769 3.40861,0.91784 4.24083,1.58788 4.24083,3.41434 0,1.88124 -0.83822,2.48724 -4.86937,3.52039 -4.80149,1.23059 -8.72701,4.37372 -11.00844,8.81438 -1.54518,3.00757 -1.40475,9.84174 0.37619,18.30802 4.79085,22.77493 1.86518,38.23632 -9.05395,47.84772 -6.11095,5.37907 -13.89925,8.23577 -24.29612,8.91167 -7.73649,0.50294 -8.32549,0.40687 -7.99596,-1.30424 z"
       style="fill:#0c5731" />
    <path
       id="path3757-0"
       d="m 897.04261,190.83952 c 0.18572,-1.3691 1.2984,-2.11538 4.42852,-2.97022 5.31235,-1.45081 7.20049,-2.56655 9.99692,-5.90735 5.78083,-6.90613 7.68277,-21.18029 5.33911,-40.0703 -2.13561,-17.21327 -1.24031,-24.28735 3.76756,-29.76842 5.92081,-6.48027 6.1179,-6.82339 4.67265,-8.13436 -4.09018,-3.71016 -7.05374,-7.538719 -8.19479,-10.586719 -1.6066,-4.29157 -1.69379,-13.0889 -0.24542,-24.76286 3.32034,-26.76222 -1.72756,-41.52503 -15.32991,-44.83308 -3.61636,-0.87948 -4.54086,-1.46647 -4.54086,-2.88305 0,-3.98414 12.79143,-1.43988 19.73441,3.92524 4.09913,3.16757 7.59654,9.31065 9.33052,16.38877 1.59357,6.50487 1.57128,22.80637 -0.0453,33.15873 -2.67265,17.11506 -0.57103,24.64872 7.76514,27.835679 2.37656,0.90857 2.95679,1.57184 2.95679,3.37985 0,1.86222 -0.58443,2.4621 -3.39502,3.48483 -3.34769,1.21814 -6.08465,4.32952 -7.67531,8.72533 -1.07733,2.97717 -0.97942,9.7423 0.26229,18.12305 3.34028,22.54483 1.30044,37.85001 -6.31259,47.36431 -4.26068,5.32472 -9.69084,8.15256 -16.93975,8.82163 -5.39403,0.49786 -5.8047,0.40276 -5.57493,-1.29106 z"
       style="fill:#000000;fill-opacity:1;stroke-width:0.83076835"
       inkscape:connector-curvature="0" />
  </g>
  <g
     id="g3837"
     transform="translate(-54.45019,-18.254401)">
    <path
       id="path3757-2"
       d="m 111.29785,191.87039 c -0.26635,-1.38307 -1.86225,-2.13697 -6.35169,-3.00054 -7.619299,-1.46561 -10.327409,-2.59274 -14.338249,-5.96764 -8.291242,-6.97661 -11.019132,-21.39645 -7.65771,-40.47925 3.06305,-17.38896 1.77893,-24.53523 -5.403692,-30.07224 -8.49202,-6.54642 -8.7747,-6.89302 -6.70182,-8.21738 5.86642,-3.74804 10.11695,-7.615679 11.75352,-10.694779 2.304292,-4.33537 2.429342,-13.22246 0.351992,-25.0156 -4.762242,-27.03533 2.47778,-41.94881 21.987189,-45.29063 5.18685,-0.88847 6.51281,-1.48143 6.51281,-2.91248 0,-4.0248 -18.346309,-1.45457 -28.304399,3.9653 -5.879272,3.1999 -10.895492,9.40568 -13.382482,16.55604 -2.28558,6.57126 -2.25362,23.03913 0.065,33.49715 3.83326,17.28974 0.81899,24.90028 -11.1373,28.119769 -3.40861,0.91784 -4.240829,1.58788 -4.240829,3.41434 0,1.88124 0.838219,2.48724 4.869369,3.52039 4.80149,1.23059 8.72701,4.37372 11.00844,8.81438 1.54518,3.00757 1.40475,9.84174 -0.37619,18.30802 -4.79085,22.77493 -1.86518,38.23632 9.05395,47.84772 6.110952,5.37907 13.899252,8.23577 24.296121,8.91167 7.73649,0.50294 8.32549,0.40687 7.99596,-1.30424 z"
       style="fill:#4ba073;fill-opacity:1"
       inkscape:connector-curvature="0" />
    <path
       id="path3757-0-4"
       d="m 103.78914,191.52429 c -0.1894,-1.37736 -1.32417,-2.12814 -4.516399,-2.98815 -5.41775,-1.45955 -7.34336,-2.58203 -10.19528,-5.943 -5.89555,-6.94781 -7.835226,-21.30814 -5.44507,-40.31216 2.17799,-17.31717 1.26493,-24.43394 -3.842317,-29.9481 -6.038292,-6.5194 -6.239288,-6.86458 -4.765361,-8.18347 4.171342,-3.73256 7.193709,-7.584229 8.357398,-10.650599 1.63847,-4.31748 1.72739,-13.1679 0.25028,-24.91234 -3.386214,-26.92375 1.76184,-41.77568 15.63411,-45.10369 3.688119,-0.88479 4.630969,-1.47532 4.630969,-2.90046 0,-4.00817 -13.045249,-1.44856 -20.125989,3.94894 -4.180483,3.1867 -7.747296,9.36685 -9.515686,16.48769 -1.625176,6.54413 -1.602444,22.94401 0.0462,33.35889 2.725668,17.21836 0.582348,24.79749 -7.919227,28.003679 -2.423708,0.91406 -3.015463,1.58132 -3.015463,3.40024 0,1.87348 0.596023,2.47698 3.462389,3.50588 3.414131,1.22549 6.205393,4.35565 7.827608,8.77798 1.098701,2.99516 0.998861,9.80112 -0.267491,18.23244 -3.406555,22.68092 -1.326241,38.07849 6.437865,47.65022 4.345215,5.35686 9.883125,8.20176 17.275865,8.87487 5.501059,0.50087 5.919879,0.4052 5.685559,-1.29886 z"
       style="fill:#cfd1d0;fill-opacity:1;stroke-width:0.84149849"
       inkscape:connector-curvature="0" />
  </g>
  <path
     inkscape:connector-curvature="0"
     id="path34-0"
     d="m 733.65609,153.69239 c -7.41678,-1.15033 -17.91675,-6.05196 -24.24437,-11.31787 -7.68891,-6.39877 -12.82427,-14.45412 -16.90905,-26.52362 -3.2155,-9.50097 -3.27922,-10.03074 -3.21076,-26.693351 0.0691,-16.820324 0.10739,-17.107444 3.6224,-27.165554 4.30911,-12.33038 9.60684,-20.398 18.15899,-27.65331 11.96545,-10.15102 22.44377,-13.68114 40.60923,-13.68114 10.98087,0 18.66977,0.87745 27.25397,3.11019 l 3.7804,0.98327 -0.2804,12.20327 -0.2804,12.20327 -3.6928,0.30695 c -3.5072,0.29153 -3.7509,0.11314 -4.848,-3.54869 -1.5238,-5.0862 -7.227,-12.84109 -11.2457,-15.29141 -2.2543,-1.37455 -5.0205,-1.96049 -9.26773,-1.96311 -14.34722,-0.009 -23.28996,12.35596 -26.52653,36.67733 -1.53292,11.51921 -0.61216,46.732075 1.42035,54.318935 5.24212,19.56755 12.01312,27 24.59713,27 3.72408,0 7.65738,-0.66263 9.70718,-1.63533 4.3377,-2.05835 9.1476,-8.9711 11.3096,-16.2541 1.6043,-5.40419 1.7921,-5.61057 5.106,-5.61057 h 3.4405 l 0.2811,12.91886 c 0.1547,7.10538 -0.1147,13.31477 -0.5986,13.79866 -0.4839,0.48389 -5.7492,1.7579 -11.7006,2.83114 -10.9205,1.96934 -27.28988,2.41184 -36.48191,0.98618 z m 1.70709,-5.65471 c 0.20505,-0.61593 -1.21688,-3.09093 -3.15984,-5.5 -9.36592,-11.61274 -14.42748,-28.20282 -15.25543,-50.002191 -0.88819,-23.385384 3.44057,-42.995764 12.34974,-55.947414 3.42493,-4.97898 3.81381,-7.93053 1.04486,-7.93053 -2.95155,0 -13.78746,8.16295 -18.16821,13.68656 -10.25956,12.93608 -14.51821,26.61247 -14.51821,46.624364 0,20.079611 3.52332,32.972741 11.82725,43.280271 8.96602,11.12938 24.31383,20.49287 25.87984,15.78894 z"
     style="fill:#060807"
     sodipodi:nodetypes="scsssssccccccccsssccsccsssccssssssc" />
  <path
     style="fill:#000000"
     d="m 552.79497,128.68013 c -7.98304,-2.14965 -12.52436,-4.85317 -17.55948,-10.45344 -7.41597,-8.24834 -9.14489,-13.94091 -9.11188,-30.001421 0.0241,-11.73895 0.32517,-14.21733 2.30775,-18.99895 3.03674,-7.32405 7.71329,-12.79879 14.322,-16.76646 9.39299,-5.63927 15.00759,-6.32263 57.04094,-6.94249 l 37.74999,-0.55669 v 5.1323 5.13229 l -28.74999,0.0509 c -36.62844,0.0649 -47.98239,0.92062 -55.25166,4.16438 -11.51228,5.1371 -15.50133,13.53854 -14.79373,31.15745 0.51404,12.799241 2.08274,16.943821 8.66339,22.889041 7.08369,6.39969 9.71193,6.73822 52.3135,6.73822 h 37.81849 v 5 5 l -39.74999,-0.0658 c -30.94341,-0.0512 -40.91299,-0.37898 -44.99933,-1.47933 z"
     id="path3694-1"
     inkscape:connector-curvature="0" />
  <path
     style="fill:#000000"
     d="m 108.74823,87.500359 c 0,-70.127958 -0.73589,-64.993778 8.30834,-57.965638 9.09038,7.06401 30.66349,22.8802 32.6813,23.9601 1.06996,0.57262 5.73402,4.07062 10.36459,7.77333 4.63058,3.70272 12.79819,9.88221 18.15025,13.73221 5.35206,3.85 10.98049,8.012498 12.50763,9.249998 4.76971,3.8651 0.13774,6.34932 52.69375,-28.260808 12.53677,-8.25595 23.91914,-15.80753 25.29414,-16.7813 7.59071,-5.37566 16.33469,-10.70789 17.55921,-10.70789 0.77148,0 1.64814,1.0125 1.94815,2.25 0.3,1.2375 0.42108,28.125 0.26905,59.749998 l -0.27641,57.500001 -20.75,0.27029 -20.75,0.27029 v -5.52029 c 0,-4.72542 0.26922,-5.52029 1.86973,-5.52029 3.1325,0 14.26838,-3.8909 18.89361,-6.60146 2.69478,-1.57925 5.67667,-4.6108 7.79967,-7.92958 l 3.43699,-5.37289 V 88.017009 c 0,-33.562648 0.0866,-33.236468 -7.2612,-27.334528 -2.33134,1.87258 -12.5638,8.7533 -22.7388,15.29048 -10.175,6.537178 -23.77424,15.405148 -30.22053,19.706588 -15.61133,10.417041 -16.85058,10.461931 -29.56522,1.07081 -5.02635,-3.7125 -14.13628,-10.35 -20.24427,-14.75 -6.10799,-4.399998 -17.64797,-12.867218 -25.64441,-18.816048 -8.26263,-6.14686 -15.14044,-10.58523 -15.93227,-10.28138 -1.15574,0.4435 -1.3933,6.73807 -1.3933,36.918158 0,36.191601 0.012,36.401431 2.27587,39.781391 2.99335,4.46906 12.23938,8.9529 19.89262,9.64687 l 5.83151,0.52879 v 4.86111 4.86111 h -22.5 -22.5 z"
     id="path3753-0"
     inkscape:connector-curvature="0" />
</svg>
