\headcommand {\slideentry {0}{0}{1}{1/1}{}{0}}
\headcommand {\beamer@framepages {1}{1}}
\headcommand {\slideentry {0}{0}{2}{2/2}{}{0}}
\headcommand {\beamer@framepages {2}{2}}
\headcommand {\beamer@sectionpages {1}{2}}
\headcommand {\beamer@subsectionpages {1}{2}}
\headcommand {\sectionentry {1}{Introduction }{3}{Introduction }{0}}
\headcommand {\slideentry {1}{0}{1}{3/3}{}{0}}
\headcommand {\beamer@framepages {3}{3}}
\headcommand {\slideentry {1}{0}{2}{4/4}{}{0}}
\headcommand {\beamer@framepages {4}{4}}
\headcommand {\slideentry {1}{0}{3}{5/5}{}{0}}
\headcommand {\beamer@framepages {5}{5}}
\headcommand {\slideentry {1}{0}{4}{6/6}{}{0}}
\headcommand {\beamer@framepages {6}{6}}
\headcommand {\slideentry {1}{0}{5}{7/7}{}{0}}
\headcommand {\beamer@framepages {7}{7}}
\headcommand {\slideentry {1}{0}{6}{8/8}{}{0}}
\headcommand {\beamer@framepages {8}{8}}
\headcommand {\slideentry {1}{0}{7}{9/9}{}{0}}
\headcommand {\beamer@framepages {9}{9}}
\headcommand {\slideentry {1}{0}{8}{10/10}{}{0}}
\headcommand {\beamer@framepages {10}{10}}
\headcommand {\slideentry {1}{0}{9}{11/13}{}{0}}
\headcommand {\beamer@framepages {11}{13}}
\headcommand {\slideentry {1}{0}{10}{14/14}{}{0}}
\headcommand {\beamer@framepages {14}{14}}
\headcommand {\beamer@sectionpages {3}{14}}
\headcommand {\beamer@subsectionpages {3}{14}}
\headcommand {\sectionentry {2}{Problem statement}{15}{Problem statement}{0}}
\headcommand {\slideentry {2}{0}{1}{15/15}{}{0}}
\headcommand {\beamer@framepages {15}{15}}
\headcommand {\slideentry {2}{0}{2}{16/16}{}{0}}
\headcommand {\beamer@framepages {16}{16}}
\headcommand {\slideentry {2}{0}{3}{17/17}{}{0}}
\headcommand {\beamer@framepages {17}{17}}
\headcommand {\slideentry {2}{0}{4}{18/20}{}{0}}
\headcommand {\beamer@framepages {18}{20}}
\headcommand {\slideentry {2}{0}{5}{21/21}{}{0}}
\headcommand {\beamer@framepages {21}{21}}
\headcommand {\beamer@sectionpages {15}{21}}
\headcommand {\beamer@subsectionpages {15}{21}}
\headcommand {\sectionentry {3}{Current Methodology}{22}{Current Methodology}{0}}
\headcommand {\slideentry {3}{0}{1}{22/22}{}{0}}
\headcommand {\beamer@framepages {22}{22}}
\headcommand {\slideentry {3}{0}{2}{23/23}{}{0}}
\headcommand {\beamer@framepages {23}{23}}
\headcommand {\slideentry {3}{0}{3}{24/24}{}{0}}
\headcommand {\beamer@framepages {24}{24}}
\headcommand {\slideentry {3}{0}{4}{25/25}{}{0}}
\headcommand {\beamer@framepages {25}{25}}
\headcommand {\slideentry {3}{0}{5}{26/26}{}{0}}
\headcommand {\beamer@framepages {26}{26}}
\headcommand {\slideentry {3}{0}{6}{27/27}{}{0}}
\headcommand {\beamer@framepages {27}{27}}
\headcommand {\slideentry {3}{0}{7}{28/28}{}{0}}
\headcommand {\beamer@framepages {28}{28}}
\headcommand {\slideentry {3}{0}{8}{29/29}{}{0}}
\headcommand {\beamer@framepages {29}{29}}
\headcommand {\gdef \insertmainframenumber {24}}
\headcommand {\partentry {Annexe}{1}}
\headcommand {\beamer@partpages {1}{29}}
\headcommand {\beamer@sectionpages {22}{29}}
\headcommand {\beamer@subsectionpages {22}{29}}
\headcommand {\beamer@appendixpages {30}}
\headcommand {\slideentry {3}{0}{9}{30/30}{}{1}}
\headcommand {\beamer@framepages {30}{30}}
\headcommand {\slideentry {3}{0}{10}{31/31}{}{1}}
\headcommand {\beamer@framepages {31}{31}}
\headcommand {\beamer@partpages {30}{31}}
\headcommand {\beamer@subsectionpages {30}{31}}
\headcommand {\beamer@sectionpages {30}{31}}
\headcommand {\beamer@documentpages {31}}
\headcommand {\gdef \inserttotalframenumber {24}}
